<?xml version="1.0"?>
<robot xmlns:xacro="http://www.ros.org/wiki/xacro" name="HDL-32E">
  <xacro:property name="M_PI" value="3.1415926535897931" />
  <xacro:macro name="HDL-32E" params="*origin parent:=base_link name:=velodyne topic:=/velodyne_points hz:=10 lasers:=32 samples:=2187 collision_range:=0.3 min_range:=0.9 max_range:=130.0 noise:=0.008 min_angle:=-${M_PI} max_angle:=${M_PI}">

    <joint name="${name}_base_mount_joint" type="fixed">
      <xacro:insert_block name="origin" /> 
      <parent link="${parent}"/>
      <child link="${name}_base_link"/>
    </joint>

    <link name="${name}_base_link">
      <inertial>
        <mass value="0.1"/>
        <origin xyz="0 0 0"/>
        <inertia ixx="0.1" ixy="0" ixz="0" iyy="0.1" iyz="0" izz="0.1"/>
      </inertial>
      <visual>
        <geometry>
          <mesh filename="package://velodyne_description/meshes/HDL32E_base.dae" />
        </geometry>
      </visual>
      <collision>
        <origin rpy="0 0 0" xyz="0 0 0.07212"/>
        <geometry>
          <cylinder radius="0.04267" length="0.14424"/>
        </geometry>
      </collision>
    </link>

    <joint name="${name}_base_scan_joint" type="fixed" >
      <origin xyz="0 0 0.09081" rpy="0 0 0" />
      <parent link="${name}_base_link" />
      <child link="${name}"/>
    </joint>
        
    <link name="${name}">
      <inertial>
        <mass value="0.1"/>
        <origin xyz="0 0 0"/>
        <inertia ixx="0.1" ixy="0" ixz="0" iyy="0.1" iyz="0" izz="0.1"/>
      </inertial>
      <visual>
        <origin xyz="0 0 -0.09081" rpy="0 0 0" />
        <geometry>
          <mesh filename="package://velodyne_description/meshes/HDL32E_scan.dae" />
        </geometry>
      </visual>
    </link>

    <!-- Gazebo requires the velodyne_gazebo_plugins package -->
    <gazebo reference="${name}">
      <sensor type="ray" name="${name}-HDL32E">
        <pose>0 0 0 0 0 0</pose>
        <visualize>false</visualize>
        <update_rate>${hz}</update_rate>
        <ray>
          <scan>
            <horizontal>
              <samples>${samples}</samples>
              <resolution>1</resolution>
              <min_angle>${min_angle}</min_angle>
              <max_angle>${max_angle}</max_angle>
            </horizontal>
            <vertical>
              <samples>${lasers}</samples>
              <resolution>1</resolution>
              <min_angle>-${30.67*M_PI/180.0}</min_angle>
              <max_angle> ${10.67*M_PI/180.0}</max_angle>
            </vertical>
          </scan>
          <range>
            <min>${collision_range}</min>
            <max>${max_range+1}</max>
            <resolution>0.001</resolution>
          </range>
          <noise>
            <type>gaussian</type>
            <mean>0.0</mean>
            <stddev>0.0</stddev>
          </noise>
        </ray>
        <plugin name="gazebo_ros_laser_controller" filename="libgazebo_ros_velodyne_laser.so">
          <topicName>${topic}</topicName>
          <frameName>${name}</frameName>
          <min_range>${min_range}</min_range>
          <max_range>${max_range}</max_range>
          <gaussianNoise>${noise}</gaussianNoise>
        </plugin>
      </sensor>
    </gazebo>

  </xacro:macro>
</robot>
